…
### Шаг 2. Анализ

#### 1. Определить небезопасные точки доступа (без шифрования – OPN)

``` r
wifi_ap_clean %>% filter(privacy == "OPN")
```

    # A tibble: 42 × 15
       bssid    first_seen          last_seen           channel speed privacy cipher
       <chr>    <dttm>              <dttm>                <dbl> <dbl> <chr>   <chr> 
     1 E8:28:C… 2023-07-28 09:13:03 2023-07-28 11:55:38       6   130 OPN     <NA>  
     2 E8:28:C… 2023-07-28 09:13:06 2023-07-28 11:55:12       6   130 OPN     <NA>  
     3 E8:28:C… 2023-07-28 09:13:06 2023-07-28 11:55:11       6   130 OPN     <NA>  
     4 E8:28:C… 2023-07-28 09:13:06 2023-07-28 11:55:10       6    -1 OPN     <NA>  
     5 00:25:0… 2023-07-28 09:13:06 2023-07-28 11:56:21      44    -1 OPN     <NA>  
     6 E8:28:C… 2023-07-28 09:13:09 2023-07-28 11:56:05      11   130 OPN     <NA>  
     7 E8:28:C… 2023-07-28 09:13:13 2023-07-28 10:27:06       6   130 OPN     <NA>  
     8 E8:28:C… 2023-07-28 09:13:13 2023-07-28 10:39:43       6   130 OPN     <NA>  
     9 E8:28:C… 2023-07-28 09:13:17 2023-07-28 11:52:32       1   130 OPN     <NA>  
    10 E8:28:C… 2023-07-28 09:13:50 2023-07-28 11:43:39      11   130 OPN     <NA>  
    # ℹ 32 more rows
    # ℹ 8 more variables: auth <chr>, power <dbl>, beacons <dbl>, iv_count <dbl>,
    #   lan_ip <chr>, id_length <dbl>, essid <chr>, key <lgl>
…
``` r
wifi_ap_sorted_duration <- wifi_ap_sessions %>%
arrange(desc(duration)) %>%
select(bssid, essid, company, session_id, duration, first_seen, last_seen)

wifi_ap_sorted_duration
```

    # A tibble: 167 × 7
       bssid             essid       company session_id duration first_seen         
       <chr>             <chr>       <chr>        <int>    <dbl> <dttm>             
     1 00:25:00:FF:94:73 <NA>        Apple,…          1     9795 2023-07-28 09:13:06
     2 E8:28:C1:DD:04:52 MIREA_HOTS… Eltex …          1     9776 2023-07-28 09:13:09
     3 E8:28:C1:DC:B2:52 MIREA_HOTS… Eltex …          1     9755 2023-07-28 09:13:03
     4 08:3A:2F:56:35:FE <NA>        Guangz…          1     9746 2023-07-28 09:13:27
     5 6E:C7:EC:16:DA:1A Cnet        <NA>             1     9729 2023-07-28 09:13:03
     6 E8:28:C1:DC:B2:50 MIREA_GUES… Eltex …          1     9726 2023-07-28 09:13:06
     7 48:5B:39:F9:7A:48 <NA>        ASUSTe…          1     9725 2023-07-28 09:13:06
     8 E8:28:C1:DC:B2:51 <NA>        Eltex …          1     9725 2023-07-28 09:13:06
     9 E8:28:C1:DC:FF:F2 <NA>        Eltex …          1     9724 2023-07-28 09:13:06
    10 8E:55:4A:85:5B:01 Vladimir    <NA>             1     9723 2023-07-28 09:13:06
    # ℹ 157 more rows
    # ℹ 1 more variable: last_seen <dttm>
…
#### 6. Отсортировать точки доступа по частоте отправки запросов (beacons) в единицу времени по их убыванию.

``` r
wifi_ap_sorted_beacon_rate <- wifi_ap_sessions %>%
filter(is.finite(beacon_rate)) %>%
arrange(desc(beacon_rate)) %>%
select(bssid, essid, company, session_id, beacons, duration, beacon_rate)

wifi_ap_sorted_beacon_rate
```

    # A tibble: 124 × 7
       bssid             essid       company session_id beacons duration beacon_rate
       <chr>             <chr>       <chr>        <int>   <dbl>    <dbl>       <dbl>
     1 F2:30:AB:E9:03:ED iPhone (Ul… <NA>             1       6        7       0.857
     2 B2:CF:C0:00:4A:60 Михаил's G… <NA>             1       4        5       0.8  
     3 3A:DA:00:F9:0C:02 iPhone XS … <NA>             1       5        9       0.556
     4 00:3E:1A:5D:14:45 MT_FREE     <NA>             1       1        2       0.5  
     5 02:BC:15:7E:D5:DC MT_FREE     <NA>             1       1        2       0.5  
     6 76:C5:A0:70:08:96 <NA>        <NA>             1       1        2       0.5  
     7 D2:25:91:F6:6C:D8 Саня        <NA>             1       5       13       0.385
     8 BE:F1:71:D6:10:D7 C322U21 05… <NA>             1    1647     9461       0.174
     9 00:03:7A:1A:03:56 MT_FREE     Taiyo …          1       1        6       0.167
    10 38:1A:52:0D:84:D7 EBFCD57F-E… Seiko …          1     704     4319       0.163
    # ℹ 114 more rows

#### 1. Определить производителя для каждого обнаруженного устройства

Для этого воспользуемся функцией `get_vendor()`, написанной ранее. Для
клиентов логичнее определять производителя по `station_mac`:

``` r
wifi_clients_clean <- wifi_clients_clean %>%
  mutate(company = vapply(station_mac, get_vendor, character(1)))

wifi_clients_clean
```

    # A tibble: 12,081 × 8
       station_mac       first_seen          last_seen           power packets bssid
       <chr>             <dttm>              <dttm>              <dbl>   <dbl> <chr>
     1 CA:66:3B:8F:56:DD 2023-07-28 09:13:03 2023-07-28 10:59:44   -33     858 BE:F…
     2 96:35:2D:3D:85:E6 2023-07-28 09:13:03 2023-07-28 09:13:03   -65       4 <NA> 
     3 5C:3A:45:9E:1A:7B 2023-07-28 09:13:03 2023-07-28 11:51:54   -39     432 BE:F…
     4 C0:E4:34:D8:E7:E5 2023-07-28 09:13:03 2023-07-28 11:53:16   -61     958 BE:F…
     5 5E:8E:A6:5E:34:81 2023-07-28 09:13:04 2023-07-28 09:13:04   -53       1 <NA> 
     6 10:51:07:CB:33:E7 2023-07-28 09:13:05 2023-07-28 11:56:06   -43     344 <NA> 
     7 68:54:5A:40:35:9E 2023-07-28 09:13:06 2023-07-28 11:50:50   -31     163 1E:9…
     8 74:4C:A1:70:CE:F7 2023-07-28 09:13:06 2023-07-28 09:20:01   -71       3 E8:2…
     9 8A:A3:5A:33:76:57 2023-07-28 09:13:06 2023-07-28 10:20:27   -74     115 00:2…
    10 CA:54:C4:8B:B5:3A 2023-07-28 09:13:06 2023-07-28 11:55:04   -65     437 00:2…
    # ℹ 12,071 more rows
    # ℹ 2 more variables: probed_essids <chr>, company <chr>
…
  if (bitwAnd(b1, 0x01) != 0) return(NA)
  
  laa <- bitwAnd(b1, 0x02) != 0
  return(laa)
}

clients_nr <- wifi_clients_clean %>%
  mutate(is_randomized = vapply(station_mac, is_laa, logical(1))) %>%
  filter(is_randomized == FALSE) %>%
  select(station_mac, bssid, first_seen, last_seen, power, packets)

clients_nr
```

    # A tibble: 217 × 6
       station_mac       bssid first_seen          last_seen           power packets
       <chr>             <chr> <dttm>              <dttm>              <dbl>   <dbl>
     1 5C:3A:45:9E:1A:7B BE:F… 2023-07-28 09:13:03 2023-07-28 11:51:54   -39     432
     2 C0:E4:34:D8:E7:E5 BE:F… 2023-07-28 09:13:03 2023-07-28 11:53:16   -61     958
     3 10:51:07:CB:33:E7 <NA>  2023-07-28 09:13:05 2023-07-28 11:56:06   -43     344
     4 68:54:5A:40:35:9E 1E:9… 2023-07-28 09:13:06 2023-07-28 11:50:50   -31     163
     5 74:4C:A1:70:CE:F7 E8:2… 2023-07-28 09:13:06 2023-07-28 09:20:01   -71       3
     6 BC:F1:71:D4:DB:04 <NA>  2023-07-28 09:13:07 2023-07-28 10:57:52   -45     265
     7 4C:44:5B:14:76:E3 E8:2… 2023-07-28 09:13:09 2023-07-28 09:47:44    -1      71
     8 A0:E7:0B:AE:D5:44 0A:C… 2023-07-28 09:13:09 2023-07-28 11:34:42   -37     125
     9 00:95:69:E7:7F:35 <NA>  2023-07-28 09:13:11 2023-07-28 11:56:07   -69    2245
    10 00:95:69:E7:7C:ED <NA>  2023-07-28 09:13:11 2023-07-28 11:56:13   -55    4096
    # ℹ 207 more rows
…
device_essid_presence
```

    # A tibble: 466 × 7
       station_mac   essid_norm first_seen_in       last_seen_out       duration_sec
       <chr>         <chr>      <dttm>              <dttm>                     <dbl>
     1 8C:55:4A:DE:… Galaxy A3… 2023-07-28 09:13:17 2023-07-28 11:56:16         9779
     2 CA:54:C4:8B:… GIVC       2023-07-28 09:13:06 2023-07-28 11:55:04         9718
     3 F6:4D:98:98:… GIVC       2023-07-28 09:14:37 2023-07-28 11:55:29         9652
     4 C0:E4:34:D8:… C322U13 3… 2023-07-28 09:13:03 2023-07-28 11:53:16         9613
     5 5C:3A:45:9E:… C322U21 0… 2023-07-28 09:13:03 2023-07-28 11:51:54         9531
     6 28:7F:CF:23:… KC         2023-07-28 09:13:14 2023-07-28 11:51:50         9516
     7 34:E1:2D:3C:… Cnet       2023-07-28 09:13:29 2023-07-28 11:51:50         9501
     8 88:D8:2E:4F:… POCO X5 P… 2023-07-28 09:13:19 2023-07-28 11:51:24         9485
     9 FE:B7:DD:ED:… MIREA_HOT… 2023-07-28 09:13:55 2023-07-28 11:51:47         9472
    10 68:54:5A:40:… Galaxy A71 2023-07-28 09:13:06 2023-07-28 11:50:50         9464
    # ℹ 456 more rows
    # ℹ 2 more variables: n_records <int>, link_types <chr>
…
