…
#### 4. Подготовьте датафрейм с расшифровкой Windows Event_ID, приведите типы данных к типу их значений

``` r
win_events <- ad_data %>% select(eventevent_code, eventevent_action) %>% distinct() %>% rename(
    event_id     = eventevent_code,
    task         = eventevent_action
) %>% type_convert()

win_events
```

    # A tibble: 119 × 2
       event_id task                                       
          <int> <chr>                                      
     1     4703 Token Right Adjusted Events                
     2     4673 Sensitive Privilege Use                    
     3       10 Process accessed (rule: ProcessAccess)     
     4       11 File created (rule: FileCreate)            
     5        7 Image loaded (rule: ImageLoad)             
     6     4689 Process Termination                        
     7        5 Process terminated (rule: ProcessTerminate)
     8     5158 Filtering Platform Connection              
     9     5156 Filtering Platform Connection              
    10     4672 Special Logon                              
    # ℹ 109 more rows
…
event_severity
```

    # A tibble: 86 × 2
       event_id severity      
          <int> <chr>         
     1     1102 Medium to High
     2     4618 High          
     3     4621 Medium        
     4     4649 High          
     5     4675 Medium        
     6     4692 Medium        
     7     4693 Medium        
     8     4706 Medium        
     9     4713 Medium        
    10     4714 Medium        
    # ℹ 76 more rows
…
